<svg width="693" height="781" viewBox="0 0 693 781" fill="none" xmlns="http://www.w3.org/2000/svg">
<rect x="91.6826" y="206" width="100" height="100" rx="10" transform="rotate(31.1196 91.6826 206)" fill="#FF0062"/>
<rect x="300" y="380" width="100" height="100" rx="10" transform="rotate(31.1196 91.6826 206)" fill="#FF8400"/>
<rect x="460.129" y="87.4651" width="100" height="100" rx="10" transform="rotate(-12.3192 460.129 87.4651)" fill="#16202F"/>
<circle cx="536.5" cy="617.5" r="60.5" fill="#FFE048"/>
</svg>
